﻿[
    { 
        "extensions"    : [".cpp", ".h", ".hpp"],
        "language"      : "cpp",
        "wrap_lines"    : false
    },
    { 
        "extensions"    : [".md"],
        "language"      : "markdown",
        "line_number_area"    : false
    },
    { 
        "extensions"    : [".fuze"],
        "language"      : "fuze",
        "wrap_lines"    : false,
        "use_lexis_for_completer"    : false,
        "hover_for_identifiers_only" : false
    },
    { 
        "extensions"    : [".simodo-script", ".script", ".sbl"],
        "language"      : "simodo-script",
        "wrap_lines"    : false
    },
    { 
        "extensions"    : [".teragraph"],
        "language"      : "teragraph",
        "wrap_lines"    : false
    },
    { 
        "extensions"    : ["CMakeLists.txt"],
        "language"      : "cmake"
    },
    { 
        "extensions"    : [".json", ".simodo-setup"],
        "language"      : "json",
        "semantic_postorder" : true,
        "wrap_lines"    : false
    },
    { 
        "extensions"    : [".json5"],
        "language"      : "json5",
        "semantic_postorder" : true,
        "wrap_lines"    : false
    },
    { 
        "extensions"                : [".scriptc0", ".sc0"],
        "language"                  : "scriptc0",
        "use_lexis_for_completer"   : false,
        "tab-size"                  : 4
    },
    { 
        "extensions"    : [".diff"],
        "language"      : "diff",
        "use_lexis_for_completer"   : false,
        "tab-size"      : 4
    },
    { 
        "extensions"    : [".print"],
        "language"      : "print",
        "wrap_lines"    : false
    },
    {
        "extensions"    : [".sv"],
        "language"      : "systemverilog",
        "wrap_lines"    : false
    }
]
