{
    "_comment_" : "Структура LexicalParameters для SIMODO fuze",
    "markups" : [
        {
            "start"       : "/*",
            "end"         : "*/",
            "ignore_sign" : "",
            "type"        : "Comment"
        },
        {
            "start"       : "//",
            "end"         : "",
            "ignore_sign" : "",
            "type"        : "Comment"
        }
    ],
    "masks" : [
        {
            "chars"  : "N",
            "type"   : "Number",
            "system" : 10
        }
    ],
    "--punctuation_chars" : "+*()",
    "digits"            : "0123456789ABCDEF",
    "latin_alphabet"    : "abcdefghijklmnopqrstuvwxyzABCDEFGHIJKLMNOPQRSTUVWXYZ",
    "national_alphabet" : "абвгдеёжзийклмнопрстуфхцчшщъыьэюяАБВГДЕЁЖЗИЙКЛМНОПРСТУФХЦЧШЩЪЫЬЭЮЯ",
    "id_extra_symbols"  : "_",
    "may_national_letters_use" : true,
    "may_national_letters_mix" : true,
    "is_case_sensitive" : true
}
