<!DOCTYPE svg PUBLIC "-//W3C//DTD SVG 1.1//EN" "http://www.w3.org/Graphics/SVG/1.1/DTD/svg11.dtd">

<!-- Uploaded to: SVG Repo, www.svgrepo.com, Transformed by: SVG Repo Mixer Tools -->
<svg width="800px" height="800px" viewBox="0 0 1024 1024" class="icon" version="1.1" xmlns="http://www.w3.org/2000/svg" fill="#000000">

<g id="SVGRepo_bgCarrier" stroke-width="0"/>

<g id="SVGRepo_tracerCarrier" stroke-linecap="round" stroke-linejoin="round"/>

<g id="SVGRepo_iconCarrier">

<path d="M853.333333 960H170.666667V64h469.333333l213.333333 213.333333z" fill="#25B7D3"/>

<path d="M821.333333 298.666667H618.666667V96z" fill="#ffffff"/>

<path d="M341.333333 448h362.666667v42.666667H341.333333zM341.333333 533.333333h277.333334v42.666667H341.333333zM341.333333 618.666667h362.666667v42.666666H341.333333zM341.333333 704h277.333334v42.666667H341.333333z" fill="#ffffff"/>

</g>

<g transform="translate(0, -100)">
<path d="M1017.6 620.8l-59.733333-59.733333c-8.533333-8.533333-23.466667-8.533333-34.133334 0L896 588.8l93.866667 93.866667 27.733333-27.733334c8.533333-8.533333 8.533333-23.466667 0-34.133333z" fill="#E57373" />

<path d="M585.962667 899.562667L848.426667 637.12l93.525333 93.525333L679.466667 993.066667z" fill="#FF9800" />

<path d="M989.866667 683.477333l-46.762667 46.762667-93.504-93.525333 46.762667-46.741334z" fill="#B0BEC5" />

<path d="M586.666667 900.266667L554.666667 1024l123.733333-32z" fill="#FFC107" />

<path d="M569.6 960l-14.933333 64 64-14.933333z" fill="#37474F" />
</g>
</svg>
